         3998013 function calls (2000013 primitive calls) in 13.476 seconds

   Ordered by: cumulative time

   ncalls  tottime  percall  cumtime  percall filename:lineno(function)
        1    0.002    0.002   13.476   13.476 C:\Users\kmet\Documents\GitHub\arrayop\myarrayMain\basearray.py:123(__sort__)
1999000/1000    1.492    0.000   13.112    0.013 C:\Users\kmet\Documents\GitHub\arrayop\myarrayMain\basearray.py:154(TopDownSplitMerge)
   999000   11.620    0.000   11.620    0.000 C:\Users\kmet\Documents\GitHub\arrayop\myarrayMain\basearray.py:165(TopDownMerge)
        1    0.228    0.228    0.355    0.355 C:\Users\kmet\Documents\GitHub\arrayop\myarrayMain\basearray.py:49(__init__)
  1000003    0.084    0.000    0.084    0.000 {built-in method builtins.isinstance}
        1    0.044    0.044    0.044    0.044 C:\Users\kmet\Documents\GitHub\arrayop\myarrayMain\basearray.py:92(<listcomp>)
        2    0.006    0.003    0.006    0.003 {method 'copy' of 'list' objects}
        1    0.000    0.000    0.000    0.000 C:\Users\kmet\Documents\GitHub\arrayop\myarrayMain\basearray.py:369(_shape_to_steps)
        1    0.000    0.000    0.000    0.000 {method 'disable' of '_lsprof.Profiler' objects}
        2    0.000    0.000    0.000    0.000 {method 'append' of 'list' objects}
        1    0.000    0.000    0.000    0.000 {built-in method builtins.len}


